NAME USERNAME PASSWORD ACCESSLEVEL SOLDBILLS SOLDITEMS MONEY BIRTHDAY MOBILENO EMAIL SALARY

arbi arbi 1 2 0 0 -1.0 1986-09-21 0697593893 arbi@gmail.com 254453.0 
teuta teuta 1 1 0 0 0.0 1997-02-01 0698383922 teuta@gmail.com 343452.0 
endi endi 1 1 -1 -1 -1.0 1997-02-20 0698383922 endi@gmail.com 234123.0 
vaso vaso 1 0 23 234 78877.4 1997-03-02 0687759399 vaso@gmail.com 10000.0 